{
    "name":"Pie Chart",
    "key":"simple-pie-chart",
    "description":"Vizualize a set of values on a pie chart.",
    "specifications": {
        "vega-lite": {
            "$schema": "https://vega.github.io/schema/vega-lite/v4.json",
            "data":{
            	"url":"${data.url}"
            },   
            "autosize": {"type": "fit", "contains": "padding"},
            "description": "A simple pie chart.",
            "mark": {"type":"arc","tooltip":true},
            "encoding": {
                "theta": {"field": "${value.field}", "type": "quantitative", "aggregate": "${aggregation}"},
                "color": {"field": "${category.field}", "type": "nominal"}
            },
            "view": {"stroke": null}
        }
    },
    "parameters":[
        {
        	"name":"category.field",
            "presentationName":"Category (Color) Field",
            "description":"The field to use for the category (color)",
            "type":"nominal",
            "source":"field"
        },
        {
        	"name":"value.field",
            "presentationName":"Value (Theta) Field",
            "description":"The field to use for the theta value",
            "type":"quantitative",
            "source":"field"
        },
        {
        	"name":"aggregation",
            "presentationName":"Aggregation",
            "description":"The aggregation operation to apply to values when calculatig theta",
            "defaultValue":"sum",
            "options": [
                {"name":"sum", "presentationName":"Sum"},
                {"name":"average", "presentationName":"Average"},
                {"name":"count", "presentationName":"Count"},
                {"name":"distinct", "presentationName":"Distinct"},
                {"name":"stdev", "presentationName":"Standard deviation"},
                {"name":"median", "presentationName":"Median"},
                {"name":"min", "presentationName":"Minimum"},
                {"name":"max", "presentationName":"Maximum"}
            ],
            "source":"option"
        }
    ],
    "accepts":[
        "application/json","text/csv"
    ],
    "links":[
    	{"rel":"preview", "href":"previews/simple-pie-chart.svg"}
    ]
}