{
	"name": "US Counties",
	"key": "basic-us-choropleth",
	"description": "Vizualize a value on a map of the United States (Chloropleth).  Counties are identified using their FIPS code.",
	"specifications": {
		"vega-lite": {
			"$schema": "https://vega.github.io/schema/vega-lite/v5.json",
			"mark": "bar",
			"encoding": {
				"x": {
					"timeUnit": "month",
					"field": "date",
					"type": "ordinal",
					"title": "Month of the year"
				},
				"y": {
					"aggregate": "count",
					"type": "quantitative"
				},
				"color": {
					"field": "weather",
					"type": "nominal",
					"scale": {
						"domain": [
							"sun",
							"fog",
							"drizzle",
							"rain",
							"snow"
						],
						"range": [
							"#e7ba52",
							"#c7c7c7",
							"#aec7e8",
							"#1f77b4",
							"#9467bd"
						]
					},
					"title": "Weather type"
				}
			}
		}
	}
}